/home/gustibimo/workspaces/SpringBoot-projects/catalog/src/main/java/com/gustibimo/learnspring/catalog/CatalogApplication.java
/home/gustibimo/workspaces/SpringBoot-projects/catalog/src/main/java/com/gustibimo/learnspring/catalog/entity/Product.java
/home/gustibimo/workspaces/SpringBoot-projects/catalog/src/main/java/com/gustibimo/learnspring/catalog/dao/ProductDao.java
/home/gustibimo/workspaces/SpringBoot-projects/catalog/src/main/java/com/gustibimo/learnspring/catalog/controller/ProductApiController.java
